{
  "sku": "ARMCHAIR",
  "name": "Armchair",
  "id": 3844,
  "viewer-type": 2,
  "data": {
    "feature-types": [
      {
        "name": "Wood_Material",
        "groupID": null,
        "features": [
          {
            "name": "Glossy Imubia wood",
            "id": 1,
            "code": "IMUBIA WOOD GLOSSY",
            "virtual": 0,
            "variations": [
              {
                "key": 1315421,
                "dependencies": [],
                "styleshots": []
              },
              {
                "key": 1315422,
                "dependencies": [],
                "styleshots": []
              },
              {
                "key": 1315423,
                "dependencies": [],
                "styleshots": []
              },
              {
                "key": 1315424,
                "dependencies": [],
                "styleshots": []
              }
            ]
          },
          {
            "name": "Dark beechwood",
            "id": 2,
            "code": "BEECHWOOD 3",
            "virtual": 0,
            "variations": [
              {
                "key": 1315425,
                "dependencies": [],
                "styleshots": []
              },
              {
                "key": 1315426,
                "dependencies": [],
                "styleshots": []
              },
              {
                "key": 1315427,
                "dependencies": [],
                "styleshots": []
              },
              {
                "key": 1315428,
                "dependencies": [],
                "styleshots": []
              }
            ]
          },
          {
            "name": "Glossy beechwood",
            "id": 3,
            "code": "BEECHWOOD 2",
            "virtual": 0,
            "variations": [
              {
                "key": 1315429,
                "dependencies": [],
                "styleshots": []
              },
              {
                "key": 1315430,
                "dependencies": [],
                "styleshots": []
              },
              {
                "key": 1315431,
                "dependencies": [],
                "styleshots": []
              },
              {
                "key": 1315432,
                "dependencies": [],
                "styleshots": []
              }
            ]
          },
          {
            "name": "Light beechwood",
            "id": 4,
            "code": "BEECHWOOD 1",
            "virtual": 0,
            "variations": [
              {
                "key": 1315433,
                "dependencies": [],
                "styleshots": []
              },
              {
                "key": 1315434,
                "dependencies": [],
                "styleshots": []
              },
              {
                "key": 1315435,
                "dependencies": [],
                "styleshots": []
              },
              {
                "key": 1315436,
                "dependencies": [],
                "styleshots": []
              }
            ]
          }
        ],
        "id": 1,
        "type": "WOOD_MATERIAL",
        "auto": 0,
        "optional": 0
      },
      {
        "name": "Fabric_Material",
        "groupID": null,
        "features": [
          {
            "name": "Black and white cow hide",
            "id": 1,
            "code": "COW HIDE BLACK\\WHITE",
            "virtual": 1,
            "variations": [
              {
                "key": 0,
                "dependencies": [],
                "styleshots": []
              }
            ]
          },
          {
            "name": "Black leather",
            "id": 2,
            "code": "LEATHER BLACK",
            "virtual": 1,
            "variations": [
              {
                "key": 0,
                "dependencies": [],
                "styleshots": []
              }
            ]
          },
          {
            "name": "Brown and white cow hide",
            "id": 3,
            "code": "COW HIDE BROWN\\WHITE",
            "virtual": 1,
            "variations": [
              {
                "key": 0,
                "dependencies": [],
                "styleshots": []
              }
            ]
          },
          {
            "name": "White leather",
            "id": 4,
            "code": "LEATHER WHITE",
            "virtual": 1,
            "variations": [
              {
                "key": 0,
                "dependencies": [],
                "styleshots": []
              }
            ]
          }
        ],
        "id": 2,
        "type": "FABRIC_MATERIAL",
        "auto": 0,
        "optional": 0
      }
    ],
    "version": 1,
    "image-count": 36,
    "file-type": "jpg",
    "sprite-count": 0,
    "width": 512,
    "height": 512,
    "max-size": 4096,
    "max-height": 4096,
    "non-graphical": [],
    "unknown-features": [],
    "styleshots": []
  },
  "debugData": {
    "TimeStamp": "Thursday, October 25, 2018 8:55:47 AM",
    "DBQueryTime": 15,
    "InternalSKUTime": 6,
    "CustomerSKUTime": 9,
    "DBDataProcessingTime": 0,
    "DataProcessingTime": 0,
    "IsCacheHit": "None",
    "ErrorMessage": ""
  }
}
